20

9
A
B
C
D
E
F
G
H
I
4 3 8 7 2 9 5 1 6
3 2 9 5 7 4 1 8 6
6 4 1 9 5 7 2 3 8
2 8 5 4 9 3 6 7 1
9 4 5 3 1 2 6 7 8
1 5 2 3 8 9 6 7 4
3 6 4 8 7 2 1 9 5

6
A
B
C
D
E
F
4 2 3 5 1 6
2 4 6 3 1 5
5 1 4 2 3 6
6 2 3 5 4 1
6 5 1 3 2 4
1 5 3 4 6 2
4 3 1 5 2 6
6 2 5 3 1 4
2 4 1 6 5 3
6 4 5 1 2 3
2 4 6 3 1 5

10
A
B
C
D
E
F
G
H
I
J
10 6 2 3 8 1 5 4 9 7
2 10 1 9 5 7 8 4 3 6
2 9 10 6 8 3 7 5 1 4
10 3 8 1 5 9 2 7 6 4
8 5 2 3 1 9 10 6 4 7

4
A
B
C
D
3 2 4 1
1 2 3 4
1 4 3 2
2 1 4 3
2 1 4 3

1
A
1
1
1
1
1
1
1
1

3
A
B
C
2 1 3
3 2 1
3 2 1
1 2 3
3 1 2
3 2 1
1 3 2
2 1 3
1 2 3
2 3 1

10
A
B
C
D
E
F
G
H
I
J
5 10 6 2 8 9 4 1 3 7
4 9 3 6 1 7 2 5 10 8
4 6 3 1 5 10 8 2 9 7
10 9 8 5 4 3 6 7 1 2
5 3 10 7 8 4 2 9 1 6
8 7 2 3 5 10 6 4 1 9
8 4 3 7 2 1 6 10 5 9
4 9 8 3 1 2 7 6 5 10
10 1 8 6 7 4 5 2 3 9
10 6 2 7 8 9 3 4 1 5

1
A
1
1
1
1
1

4
A
B
C
D
3 1 4 2
1 2 4 3
3 4 2 1
3 2 1 4
4 1 2 3
4 1 2 3
1 3 2 4

1
A
1
1
1
1
1
1
1

10
A
B
C
D
E
F
G
H
I
J
9 7 1 8 10 6 4 5 3 2
8 3 4 6 9 10 1 5 2 7
1 4 3 5 7 9 2 8 10 6
7 8 4 1 6 2 10 5 3 9
1 6 8 7 2 3 9 4 5 10
10 4 9 1 3 5 8 7 6 2
2 5 7 9 8 3 1 6 10 4

3
A
B
C
3 1 2
3 1 2
2 3 1
2 1 3
3 2 1
3 1 2
3 2 1

3
A
B
C
3 1 2
1 3 2
2 3 1
1 2 3
1 3 2

6
A
B
C
D
E
F
4 5 1 3 2 6
5 6 4 2 1 3
4 6 1 2 3 5
6 4 3 5 1 2
6 5 2 4 3 1
1 6 5 3 2 4
5 6 1 4 3 2
2 3 1 4 6 5

3
A
B
C
2 1 3
2 3 1
3 2 1
3 2 1
2 1 3
2 3 1

5
A
B
C
D
E
2 4 3 1 5
5 2 4 3 1
4 1 5 3 2
4 2 3 1 5
3 1 4 2 5
2 5 1 4 3
5 1 2 4 3
5 4 1 2 3
4 2 3 5 1

6
A
B
C
D
E
F
5 4 1 2 3 6
5 4 2 1 6 3
3 1 2 6 5 4
3 1 5 4 6 2
3 4 2 1 6 5
4 5 1 3 2 6
1 6 5 3 4 2
4 6 1 2 3 5
1 2 4 3 6 5

5
A
B
C
D
E
3 1 2 4 5
4 3 5 2 1
3 1 2 4 5
2 3 1 4 5
3 4 5 1 2

9
A
B
C
D
E
F
G
H
I
1 9 4 7 3 5 6 2 8
8 7 4 9 2 1 5 6 3
1 5 2 6 9 7 4 3 8
8 9 3 4 7 2 6 1 5
8 2 1 5 6 3 4 7 9

9
A
B
C
D
E
F
G
H
I
2 3 6 9 8 1 4 7 5
4 7 1 3 6 8 5 9 2
4 6 1 7 2 3 9 8 5
3 2 8 6 4 5 7 9 1
6 5 1 7 2 8 3 4 9
9 3 6 2 7 1 8 4 5
5 4 9 2 1 3 8 6 7
1 9 4 2 8 5 6 7 3
3 8 2 5 9 7 6 1 4
1 7 9 4 6 2 5 8 3
