20

1
Summer
1

2
Rutvi
Summer
1 2
1 2
2 1

2
+-/*.[] {} \\ || ,, ~~`
^&*%$#@!) _ (  +  : \" <> ,)
2 1
2 1
1 2

2
Rutvi Shah
Summer Ely
1 2
2 1
2 1
1 2

2
Summer Ely
Rutvi Shah
1 2
2 1
2 1
1 2

4
Rutvi
Summer
Olivia
Raquel
2 1 3 4
2 3 4 1
3 4 1 2
4 2 1 3

4
Rutvi
Summer
Olivia
Raquel
1 2 3 4
2 3 4 1
3 4 1 2
4 1 2 3

4
Charles
Max
Lewis
Lando
3 1 4 2
2 1 4 3
2 4 1 3
2 4 3 1
3 2 4 1
3 4 1 2

5
Greg
Cameron
Eric
Chase
James
1 2 5 4 3
3 5 2 4 1
5 1 3 2 4
5 2 1 3 4
1 4 3 2 5

4
Downing
Beasley
Reeves
Dogramaci
1 4 3 2
1 4 3 2
1 4 2 3
2 1 4 3
2 1 4 3
2 1 4 3
4 1 2 3
4 1 3 2

7
Ender
Bean
Petra
Valentine
Alai
Dink Meeker
Hot Soup
1 5 4 7 2 6 3
4 6 7 1 2 5 3
1 6 7 3 2 5 4

5
Harry
Ron
Hermione
Luna
Neville
1 2 3 4 5
1 2 3 4 5
1 2 3 4 5
3 2 4 1 5
3 2 4 1 5
3 2 4 1 5
2 5 3 1 4
2 3 1 5 4
4 5 3 1 2

5
Harry
Ron
Hermione
Luna
Neville
1 2 3 4 5
1 2 3 4 5
1 2 3 4 5
3 2 4 1 5
3 2 4 1 5
3 2 4 1 5
2 5 1 3 4
2 1 3 5 4
4 1 5 3 2
5 1 3 4 2

5
Harry
Ron
Hermione
Luna
Neville
1 2 3 4 5
1 2 3 4 5
1 2 3 4 5
3 2 4 1 5
3 2 4 1 5
3 2 4 1 5
2 5 1 3 4
2 1 3 5 4
4 5 2 3 1
5 4 2 3 1

10
Iron Man
Captain America
Spider-Man
Batman
Superman
Wonder Woman
The Hulk
Wolverine
Thor
Black Panther
4 6 7 8 3 5 1 10 9 2
5 10 1 4 9 8 7 2 3 6
7 9 5 1 3 4 10 8 2 6
4 3 10 5 8 2 7 1 6 9
7 4 3 1 10 8 5 2 6 9
9 3 10 8 4 1 6 5 7 2
5 6 9 3 7 10 4 8 2 1
2 10 1 6 3 7 5 9 8 4
1 10 2 6 8 5 4 3 7 9
3 10 7 6 5 1 2 8 9 4
6 7 1 4 3 5 8 9 2 10
2 9 10 4 7 6 1 3 8 5
1 4 2 10 8 3 7 5 6 9
1 9 2 3 4 6 10 5 8 7
1 2 9 4 8 5 3 6 10 7
5 4 7 2 1 9 10 3 6 8
8 6 3 2 10 7 5 1 4 9
3 9 8 4 7 1 2 10 5 6
4 2 10 5 8 7 1 6 3 9
9 8 7 10 2 6 3 1 4 5
7 10 1 9 5 4 2 8 6 3
8 7 4 5 10 9 1 6 3 2
2 3 4 10 6 7 5 1 9 8

4
Trump
Biden
Obama
Bush
3 4 2 1
2 4 3 1
2 4 3 1
1 2 4 3
1 3 4 2
3 2 1 4
3 4 1 2
3 2 4 1

4
spring
summer
fall
winter
3 4 1 2
3 1 2 4
4 3 2 1
3 2 4 1
4 2 3 1
2 3 4 1
2 4 1 3
3 2 1 4
3 1 4 2
1 2 3 4
4 2 3 1

12
Jan
February
March
April
May
June
July
August
September
October
November
December
8 3 6 7 11 12 4 2 9 10 5 1
11 8 12 3 5 4 7 6 2 10 9 1
11 6 2 5 3 4 1 7 9 12 8 10
7 1 10 5 8 2 11 6 3 9 12 4
6 2 3 7 1 5 11 4 8 9 12 10
3 12 9 10 6 5 11 1 2 8 7 4
12 7 1 11 9 10 5 6 8 4 2 3
1 8 9 4 3 10 7 11 5 12 2 6
9 8 2 5 7 12 11 4 3 1 6 10
9 11 5 7 12 8 2 10 1 3 4 6
7 8 11 1 12 2 6 3 10 9 4 5
2 11 7 8 10 6 5 12 3 4 9 1
3 5 11 4 8 1 10 9 12 7 2 6
5 12 3 4 7 11 1 6 8 9 2 10
1 9 5 12 7 2 10 6 3 4 11 8
12 4 6 8 9 5 11 2 3 10 1 7
9 3 4 5 8 1 7 10 6 12 2 11
1 10 4 6 2 11 9 12 8 3 5 7
10 12 9 1 5 3 7 4 11 6 8 2
4 9 11 7 12 10 5 2 1 3 8 6
7 10 12 2 9 6 1 4 8 5 11 3
2 12 5 1 11 8 6 3 9 7 10 4
1 8 12 7 6 11 3 2 10 5 9 4
12 6 1 10 11 5 9 7 3 8 2 4

7
Monday
Tuesday
Wednesday
Thursday
Friday
Saturday
Sunday
2 1 4 3 7 6 5
1 3 2 5 4 6 7
4 2 7 6 1 3 5
7 4 6 1 5 3 2
4 3 1 2 7 5 6
1 4 3 6 5 7 2
7 4 5 2 1 6 3
7 5 3 4 6 2 1
7 6 1 2 4 5 3
4 6 7 1 5 2 3
2 6 4 3 7 5 1
6 2 7 5 3 4 1
5 6 1 4 2 3 7
4 2 5 6 1 3 7
2 4 3 7 1 6 5
5 4 1 6 2 7 3
1 5 6 4 3 2 7
5 7 2 1 3 4 6

3
Tacos
Pizza
Pasta
1 2 3
1 2 3
1 2 3
2 1 3
2 1 3
2 1 3
3 2 1
